Hailey Ryerson's SPMC 350 Final Project - Hailey Ryerson's Github Site
…
volleyballstats %>% filter(is.na(Result) == FALSE) %>% tally()

## # A tibble: 1 x 1
##       n
##   <int>
## 1  3561

volleyballstats %>% filter(is.na(Result) == FALSE) %>%  filter(is.na(Kills) | is.na(Aces) | is.na("Block Solos"))

## # A tibble: 81 x 23
##    Date       Team  Opponent HomeAway Result VisitorScore HomeScore     S MS   
##    <date>     <chr> <chr>    <chr>    <chr>         <dbl>     <dbl> <dbl> <lgl>
##  1 2021-02-11 Akro… Kent St. Away     Loss              1         3     4 NA   
##  2 2020-10-31 Alab… Florida  Away     Loss              0         3     3 NA   
##  3 2021-03-02 Alco… Ark.-Pi… Away     Loss              0         3     3 NA   
##  4 2020-10-24 App … Georgia… Home     Loss              1         3     4 NA   
##  5 2020-11-12 App … Coastal… Away     Loss              0         3     3 NA   
##  6 2021-03-05 Arka… Florida  Away     Loss              0         3     3 NA   
##  7 2020-10-23 Arka… Louisia… Away     Loss              1         3     4 NA   
##  8 2020-11-19 Aubu… Tenness… Home     Loss              0         3     3 NA   
##  9 2021-01-24 Bell… Western… Away     Loss              0         3     3 NA   
## 10 2021-03-08 Belm… Jackson… Home     Loss              0         3     3 NA   
## # … with 71 more rows, and 14 more variables: Kills <dbl>, Errors <dbl>, `Total
## #   Attacks` <dbl>, `Hit Pct` <dbl>, Assists <dbl>, Aces <dbl>, SErr <dbl>,
## #   Digs <dbl>, RErr <dbl>, `Block Solos` <dbl>, `Block Assists` <dbl>,
## #   BErr <dbl>, PTS <dbl>, BHE <dbl>
…
AllD1Teams %>% arrange(desc(aveKillRate))

## # A tibble: 299 x 6
##    Team                    total totalKills TotalAttacks maxKillRate aveKillRate
##    <chr>                   <int>      <dbl>        <dbl>       <dbl>       <dbl>
##  1 Kentucky Wildcats          16        785         1648        18         0.476
##  2 Wisconsin Badgers          10        441          970        16         0.455
##  3 New Mexico St. Aggies      12        612         1347        17.7       0.454
##  4 Western Ky. Lady Toppe…    14        632         1394        16.7       0.453
##  5 Jacksonville St. Gamec…    11        562         1252        17.7       0.449
##  6 N.C. A&T Aggies             9        379          847        15.7       0.447
##  7 Dayton Flyers               8        430          967        17.8       0.445
##  8 Louisville Cardinals       11        496         1120        16.2       0.443
##  9 Georgia Tech Yellow Ja…    11        544         1231        18.3       0.442
## 10 Texas Longhorns            19        958         2203        17.2       0.435
## # … with 289 more rows
…
